{
	"nodes": [
	    {
	        "id": "60",
	        "type": "http in",
	        "name": "temperature",
	        "url": "/temperature",
	        "method": "post",
	        "upload": false,
	        "swaggerDoc": "",
	        "x": 125,
	        "y": 128,
	        "wires": [
	            [
	                "10",
	                "20"
	            ]
	        ]
	    },
	    {
	        "id": "30",
	        "type": "http response",
	        "name": "ok",
	        "statusCode": "200",
	        "headers": {},
	        "x": 480,
	        "y": 41,
	        "wires": []
	    },
	    {
	        "id": "10",
	        "type": "switch",
	        "name": "cold day",
	        "property": "payload.temperature",
	        "propertyType": "msg",
	        "rules": [
	            {
	                "t": "lt",
	                "v": "16",
	                "vt": "num"
	            }
	        ],
	        "checkall": "true",
	        "outputs": 1,
	        "x": 357,
	        "y": 128,
	        "wires": [
	            [
	                "40"
	            ]
	        ]
	    },
	    {
	        "id": "20",
	        "type": "template",
	        "name": "response",
	        "field": "payload",
	        "fieldType": "msg",
	        "format": "handlebars",
	        "syntax": "plain",
	        "template": "",
	        "output": "str",
	        "x": 351,
	        "y": 41,
	        "wires": [
	            [
	                "30"
	            ]
	        ]
	    },
	    {
	        "id": "50",
	        "type": "http request",
	        "name": "query success",
	        "method": "POST",
	        "ret": "txt",
	        "url": "localhost:3000/query-success",
	        "tls": "",
	        "x": 760,
	        "y": 128,
	        "wires": [
	            []
	        ]
	    },
	    {
	        "id": "40",
	        "type": "template",
	        "name": "fact",
	        "field": "payload",
	        "fieldType": "msg",
	        "format": "json",
	        "syntax": "plain",
	        "template": "{\n    \"query_id\": 2,\n    \"status\": true\n}",
	        "output": "json",
	        "x": 562,
	        "y": 128,
	        "wires": [
	            [
	                "50"
	            ]
	        ]
	    }
	]
}
