{
	"udid": "ae9cf502-5ed2-47d4-914c-c1caec1c41c4",
	"capability": "environment_monitoring",
	"data": {
            "temperature": 38.313,
            "humidity": 38.313,
            "date": "2016-06-21T23:27:35.000Z"
          }
}